Next 3:

Refactor log/lin
Refactor for ticks
Refactor/prepare for labels (max 21 digits ? 




.
.
.
.
.
.
.
.
.
.
V
V
V









































--------------------------------
TODO / Problems / Refactoring:

mapIntoRange -> always in range? (rounding to range)

refactor collections -> more one-liners


-------------------
